{
    "name": "Title which is way too long - Lorem ipsum dolor sit amet, consectetur adipiscing elit, sed do eiusmod tempor incididunt ut labore et dolore magna aliqua.",
    "url": "https://host.name/this/url/is/also/way/too/long?text=Lorem%20ipsum%20dolor%20sit%20amet%2C%20consectetur%20adipiscing%20elit%2C%20sed%20do%20eiusmod%20tempor%20incididunt%20ut%20labore%20et%20dolore%20magna%20aliqua.",
    "tags": ["tag1", "tag2", "tag3", "way-too-long-tag-this-one-is-really-does-it-ever-end", "tag4", "tag5", "tag6", "tag7", "another-LONG-tag"],
    "notes": "Lorem ipsum dolor sit amet, consectetur adipiscing elit,\nsed do eiusmod tempor incididunt ut labore et dolore magna aliqua.\nLorem ipsum dolor sit amet, consectetur adipiscing elit,\nsed do eiusmod tempor incididunt ut labore et dolore magna aliqua.\nLorem ipsum dolor sit amet, consectetur adipiscing elit,\nsed do eiusmod tempor incididunt ut labore et dolore magna aliqua.\nLorem ipsum dolor sit amet, consectetur adipiscing elit,\nsed do eiusmod tempor incididunt ut labore et dolore magna aliqua."
}
